testbench.vcd
$date
	Fri Feb 19 01:05:57 2021
$end
$version
	Icarus Verilog
$end
$timescale
	1ps
$end
$scope module testbench $end
$var wire 1 ! trap $end
$var wire 4 " mem_wstrb [3:0] $end
$var wire 32 # mem_wdata [31:0] $end
$var wire 1 $ mem_valid $end
$var wire 1 % mem_instr $end
$var wire 32 & mem_addr [31:0] $end
$var reg 1 ' clk $end
$var reg 32 ( mem_rdata [31:0] $end
$var reg 1 ) mem_ready $end
$var reg 1 * resetn $end
$var integer 32 + i [31:0] $end
$var integer 32 , ix [31:0] $end
$scope module uut $end
$var wire 1 ' clk $end
$var wire 32 - dbg_mem_addr [31:0] $end
$var wire 1 . dbg_mem_instr $end
$var wire 32 / dbg_mem_rdata [31:0] $end
$var wire 1 0 dbg_mem_ready $end
$var wire 1 1 dbg_mem_valid $end
$var wire 32 2 dbg_mem_wdata [31:0] $end
$var wire 4 3 dbg_mem_wstrb [3:0] $end
$var wire 1 4 instr_trap $end
$var wire 32 5 irq [31:0] $end
$var wire 1 6 launch_next_insn $end
$var wire 1 7 mem_done $end
$var wire 1 8 mem_la_firstword $end
$var wire 1 9 mem_la_firstword_xfer $end
$var wire 1 : mem_la_read $end
$var wire 1 ; mem_la_use_prefetched_high_word $end
$var wire 1 < mem_la_write $end
$var wire 32 = mem_rdata [31:0] $end
$var wire 1 ) mem_ready $end
$var wire 1 > mem_xfer $end
$var wire 32 ? pcpi_div_rd [31:0] $end
$var wire 1 @ pcpi_div_ready $end
$var wire 1 A pcpi_div_wait $end
$var wire 1 B pcpi_div_wr $end
$var wire 32 C pcpi_mul_rd [31:0] $end
$var wire 1 D pcpi_mul_ready $end
$var wire 1 E pcpi_mul_wait $end
$var wire 1 F pcpi_mul_wr $end
$var wire 32 G pcpi_rd [31:0] $end
$var wire 1 H pcpi_ready $end
$var wire 32 I pcpi_rs1 [31:0] $end
$var wire 32 J pcpi_rs2 [31:0] $end
$var wire 1 K pcpi_wait $end
$var wire 1 L pcpi_wr $end
$var wire 1 * resetn $end
$var wire 32 M vcsr_vlenb [31:0] $end
$var wire 64 N vec_pcpi_rd [63:0] $end
$var wire 64 O vec_pcpi_rs1 [63:0] $end
$var wire 64 P vec_pcpi_rs2 [63:0] $end
$var wire 3 Q vsew [2:0] $end
$var wire 512 R vreg_op1X [511:0] $end
$var wire 2 S vlmul [1:0] $end
$var wire 512 T vecregs_rdata2 [511:0] $end
$var wire 512 U vecregs_rdata1 [511:0] $end
$var wire 1 V vecadd_result_ready $end
$var wire 1 W pcpi_vec_add_wr $end
$var wire 1 X pcpi_vec_add_wait $end
$var wire 1 Y pcpi_vec_add_ready $end
$var wire 64 Z pcpi_vec_add_rd [63:0] $end
$var wire 32 [ next_pc [31:0] $end
$var wire 32 \ mem_rdata_latched_noshuffle [31:0] $end
$var wire 32 ] mem_rdata_latched [31:0] $end
$var wire 32 ^ mem_la_addr [31:0] $end
$var wire 1 _ mem_busy $end
$var wire 1 ` is_rdcycle_rdcycleh_rdinstr_rdinstrh $end
$var wire 32 a VLMAX [31:0] $end
$var wire 32 b SEW [31:0] $end
$var wire 32 c LMUL [31:0] $end
$var reg 32 d alu_add_sub [31:0] $end
$var reg 1 e alu_eq $end
$var reg 1 f alu_lts $end
$var reg 1 g alu_ltu $end
$var reg 32 h alu_out [31:0] $end
$var reg 1 i alu_out_0 $end
$var reg 1 j alu_out_0_q $end
$var reg 32 k alu_out_q [31:0] $end
$var reg 32 l alu_shl [31:0] $end
$var reg 32 m alu_shr [31:0] $end
$var reg 1 n alu_wait $end
$var reg 1 o alu_wait_2 $end
$var reg 64 p cached_ascii_instr [63:0] $end
$var reg 32 q cached_insn_imm [31:0] $end
$var reg 32 r cached_insn_opcode [31:0] $end
$var reg 5 s cached_insn_rd [4:0] $end
$var reg 5 t cached_insn_rs1 [4:0] $end
$var reg 5 u cached_insn_rs2 [4:0] $end
$var reg 1 v clear_prefetched_high_word $end
$var reg 1 w clear_prefetched_high_word_q $end
$var reg 1 x compressed_instr $end
$var reg 64 y count_cycle [63:0] $end
$var reg 64 z count_instr [63:0] $end
$var reg 8 { cpu_state [7:0] $end
$var reg 32 | cpuregs_rs1 [31:0] $end
$var reg 32 } cpuregs_rs2 [31:0] $end
$var reg 32 ~ cpuregs_wrdata [31:0] $end
$var reg 1 !" cpuregs_write $end
$var reg 32 "" current_pc [31:0] $end
$var reg 64 #" dbg_ascii_instr [63:0] $end
$var reg 128 $" dbg_ascii_state [127:0] $end
$var reg 32 %" dbg_insn_addr [31:0] $end
$var reg 32 &" dbg_insn_imm [31:0] $end
$var reg 32 '" dbg_insn_opcode [31:0] $end
$var reg 5 (" dbg_insn_rd [4:0] $end
$var reg 5 )" dbg_insn_rs1 [4:0] $end
$var reg 5 *" dbg_insn_rs2 [4:0] $end
$var reg 1 +" dbg_next $end
$var reg 32 ," dbg_rs1val [31:0] $end
$var reg 1 -" dbg_rs1val_valid $end
$var reg 32 ." dbg_rs2val [31:0] $end
$var reg 1 /" dbg_rs2val_valid $end
$var reg 1 0" dbg_valid_insn $end
$var reg 32 1" decoded_imm [31:0] $end
$var reg 32 2" decoded_imm_j [31:0] $end
$var reg 5 3" decoded_rd [4:0] $end
$var reg 5 4" decoded_rs [4:0] $end
$var reg 5 5" decoded_rs1 [4:0] $end
$var reg 5 6" decoded_rs2 [4:0] $end
$var reg 1 7" decoder_pseudo_trigger $end
$var reg 1 8" decoder_pseudo_trigger_q $end
$var reg 1 9" decoder_trigger $end
$var reg 1 :" decoder_trigger_q $end
$var reg 1 ;" do_waitirq $end
$var reg 8 <" elem_n [7:0] $end
$var reg 32 =" eoi [31:0] $end
$var reg 1 >" instr_add $end
$var reg 1 ?" instr_addi $end
$var reg 1 @" instr_and $end
$var reg 1 A" instr_andi $end
$var reg 1 B" instr_auipc $end
$var reg 1 C" instr_beq $end
$var reg 1 D" instr_bge $end
$var reg 1 E" instr_bgeu $end
$var reg 1 F" instr_blt $end
$var reg 1 G" instr_bltu $end
$var reg 1 H" instr_bne $end
$var reg 1 I" instr_ecall_ebreak $end
$var reg 1 J" instr_getq $end
$var reg 1 K" instr_jal $end
$var reg 1 L" instr_jalr $end
$var reg 1 M" instr_lb $end
$var reg 1 N" instr_lbu $end
$var reg 1 O" instr_lh $end
$var reg 1 P" instr_lhu $end
$var reg 1 Q" instr_lui $end
$var reg 1 R" instr_lw $end
$var reg 1 S" instr_maskirq $end
$var reg 1 T" instr_or $end
$var reg 1 U" instr_ori $end
$var reg 1 V" instr_rdcycle $end
$var reg 1 W" instr_rdcycleh $end
$var reg 1 X" instr_rdinstr $end
$var reg 1 Y" instr_rdinstrh $end
$var reg 1 Z" instr_retirq $end
$var reg 1 [" instr_sb $end
$var reg 1 \" instr_setq $end
$var reg 1 ]" instr_sh $end
$var reg 1 ^" instr_sll $end
$var reg 1 _" instr_slli $end
$var reg 1 `" instr_slt $end
$var reg 1 a" instr_slti $end
$var reg 1 b" instr_sltiu $end
$var reg 1 c" instr_sltu $end
$var reg 1 d" instr_sra $end
$var reg 1 e" instr_srai $end
$var reg 1 f" instr_srl $end
$var reg 1 g" instr_srli $end
$var reg 1 h" instr_sub $end
$var reg 1 i" instr_sw $end
$var reg 1 j" instr_timer $end
$var reg 1 k" instr_vadd $end
$var reg 1 l" instr_vdot $end
$var reg 1 m" instr_vload $end
$var reg 1 n" instr_vsetvl $end
$var reg 1 o" instr_vsetvli $end
$var reg 1 p" instr_vstore $end
$var reg 1 q" instr_waitirq $end
$var reg 1 r" instr_xor $end
$var reg 1 s" instr_xori $end
$var reg 1 t" irq_active $end
$var reg 1 u" irq_delay $end
$var reg 32 v" irq_mask [31:0] $end
$var reg 32 w" irq_pending [31:0] $end
$var reg 2 x" irq_state [1:0] $end
$var reg 1 y" is_alu_reg_imm $end
$var reg 1 z" is_alu_reg_reg $end
$var reg 1 {" is_beq_bne_blt_bge_bltu_bgeu $end
$var reg 1 |" is_compare $end
$var reg 1 }" is_jalr_addi_slti_sltiu_xori_ori_andi $end
$var reg 1 ~" is_lb_lh_lw_lbu_lhu $end
$var reg 1 !# is_lbu_lhu_lw $end
$var reg 1 "# is_lui_auipc_jal $end
$var reg 1 ## is_lui_auipc_jal_jalr_addi_add_sub $end
$var reg 1 $# is_sb_sh_sw $end
$var reg 1 %# is_sll_srl_sra $end
$var reg 1 &# is_slli_srli_srai $end
$var reg 1 '# is_slti_blt_slt $end
$var reg 1 (# is_sltiu_bltu_sltu $end
$var reg 1 )# is_vlo $end
$var reg 1 *# is_vls $end
$var reg 1 +# is_vsetimm $end
$var reg 1 ,# is_vst $end
$var reg 1 -# last_mem_valid $end
$var reg 1 .# latched_branch $end
$var reg 1 /# latched_compr $end
$var reg 1 0# latched_is_lb $end
$var reg 1 1# latched_is_lh $end
$var reg 1 2# latched_is_lu $end
$var reg 5 3# latched_rd [4:0] $end
$var reg 1 4# latched_stalu $end
$var reg 1 5# latched_store $end
$var reg 1 6# latched_trace $end
$var reg 1 7# latched_vstore $end
$var reg 16 8# mem_16bit_buffer [15:0] $end
$var reg 32 9# mem_addr [31:0] $end
$var reg 1 :# mem_do_prefetch $end
$var reg 1 ;# mem_do_rdata $end
$var reg 1 <# mem_do_rinst $end
$var reg 1 =# mem_do_wdata $end
$var reg 1 % mem_instr $end
$var reg 1 ># mem_la_firstword_reg $end
$var reg 1 ?# mem_la_secondword $end
$var reg 32 @# mem_la_wdata [31:0] $end
$var reg 4 A# mem_la_wstrb [3:0] $end
$var reg 32 B# mem_rdata_q [31:0] $end
$var reg 32 C# mem_rdata_word [31:0] $end
$var reg 2 D# mem_state [1:0] $end
$var reg 1 $ mem_valid $end
$var reg 32 E# mem_wdata [31:0] $end
$var reg 2 F# mem_wordsize [1:0] $end
$var reg 4 G# mem_wstrb [3:0] $end
$var reg 64 H# new_ascii_instr [63:0] $end
$var reg 32 I# next_insn_opcode [31:0] $end
$var reg 32 J# next_irq_pending [31:0] $end
$var reg 32 K# pcpi_insn [31:0] $end
$var reg 32 L# pcpi_int_rd [31:0] $end
$var reg 1 M# pcpi_int_ready $end
$var reg 1 N# pcpi_int_wait $end
$var reg 1 O# pcpi_int_wr $end
$var reg 1 P# pcpi_timeout $end
$var reg 4 Q# pcpi_timeout_counter [3:0] $end
$var reg 1 R# pcpi_valid $end
$var reg 1 S# prefetched_high_word $end
$var reg 64 T# q_ascii_instr [63:0] $end
$var reg 32 U# q_insn_imm [31:0] $end
$var reg 32 V# q_insn_opcode [31:0] $end
$var reg 5 W# q_insn_rd [4:0] $end
$var reg 5 X# q_insn_rs1 [4:0] $end
$var reg 5 Y# q_insn_rs2 [4:0] $end
$var reg 32 Z# reg_next_pc [31:0] $end
$var reg 32 [# reg_op1 [31:0] $end
$var reg 32 \# reg_op2 [31:0] $end
$var reg 32 ]# reg_out [31:0] $end
$var reg 32 ^# reg_pc [31:0] $end
$var reg 5 _# reg_sh [4:0] $end
$var reg 1 `# set_mem_do_rdata $end
$var reg 1 a# set_mem_do_rinst $end
$var reg 1 b# set_mem_do_wdata $end
$var reg 32 c# timer [31:0] $end
$var reg 36 d# trace_data [35:0] $end
$var reg 1 e# trace_valid $end
$var reg 1 ! trap $end
$var reg 3 f# v_enc_width [2:0] $end
$var reg 11 g# v_membits [10:0] $end
$var reg 512 h# valu_out [511:0] $end
$var reg 32 i# vcsr_vl [31:0] $end
$var reg 32 j# vcsr_vtype [31:0] $end
$var reg 6 k# vecldstrcnt [5:0] $end
$var reg 6 l# vecreadcnt [5:0] $end
$var reg 5 m# vecregs_raddr1 [4:0] $end
$var reg 5 n# vecregs_raddr2 [4:0] $end
$var reg 5 o# vecregs_waddr [4:0] $end
$var reg 512 p# vecregs_wdata [511:0] $end
$var reg 1 q# vecregs_write $end
$var reg 512 r# vreg_op1 [511:0] $end
$var reg 512 s# vreg_op2 [511:0] $end
$var reg 64 t# vreg_pcpi_op1 [63:0] $end
$var reg 64 u# vreg_pcpi_op2 [63:0] $end
$var integer 32 v# vtempinit [31:0] $end
$scope begin genblk10 $end
$upscope $end
$scope begin genblk11[0] $end
$upscope $end
$scope begin genblk11[1] $end
$upscope $end
$scope begin genblk11[2] $end
$upscope $end
$scope begin genblk11[3] $end
$upscope $end
$scope begin genblk11[4] $end
$upscope $end
$scope begin genblk11[5] $end
$upscope $end
$scope begin genblk11[6] $end
$upscope $end
$scope begin genblk11[7] $end
$upscope $end
$scope begin genblk11[8] $end
$upscope $end
$scope begin genblk11[9] $end
$upscope $end
$scope begin genblk11[10] $end
$upscope $end
$scope begin genblk11[11] $end
$upscope $end
$scope begin genblk11[12] $end
$upscope $end
$scope begin genblk11[13] $end
$upscope $end
$scope begin genblk11[14] $end
$upscope $end
$scope begin genblk11[15] $end
$upscope $end
$scope begin genblk4 $end
$upscope $end
$scope begin genblk6 $end
$upscope $end
$scope begin genblk7 $end
$scope module pcpi_vecadd $end
$var wire 32 w# SEW [31:0] $end
$var wire 1 ' clk $end
$var wire 8 x# elem_n [7:0] $end
$var wire 32 y# pcpi_insn [31:0] $end
$var wire 1 z# pcpi_insn_valid $end
$var wire 1 R# pcpi_valid $end
$var wire 64 {# pcpi_vecrs1 [63:0] $end
$var wire 64 |# pcpi_vecrs2 [63:0] $end
$var wire 1 * resetn $end
$var reg 64 }# pcpi_rd [63:0] $end
$var reg 1 Y pcpi_ready $end
$var reg 1 X pcpi_wait $end
$var reg 1 W pcpi_wr $end
$var reg 1 V vec_res_ready $end
$upscope $end
$upscope $end
$scope module vecreg_inst $end
$var wire 1 ' clk $end
$var wire 5 ~# raddr1 [4:0] $end
$var wire 5 !$ raddr2 [4:0] $end
$var wire 512 "$ rdata1 [511:0] $end
$var wire 512 #$ rdata2 [511:0] $end
$var wire 5 $$ waddr [4:0] $end
$var wire 512 %$ wdata [511:0] $end
$var wire 1 &$ wen $end
$upscope $end
$scope task empty_statement $end
$upscope $end
$upscope $end
$upscope $end
$enddefinitions $end
#0
$dumpvars
0&$
bx %$
bx $$
bx #$
bx "$
bx !$
bx ~#
bx }#
bx |#
bx {#
0z#
bx y#
b0 x#
bx w#
bx v#
bx u#
bx t#
bx s#
bx r#
0q#
bx p#
bx o#
bx n#
bx m#
bx l#
bx k#
bx j#
bx i#
bx h#
b0 g#
bx f#
0e#
bx d#
b0 c#
0b#
0a#
0`#
bx _#
b0 ^#
bx ]#
bx \#
bx [#
b0 Z#
bx Y#
bx X#
bx W#
bx V#
bx U#
bx T#
0S#
0R#
b1111 Q#
0P#
0O#
xN#
xM#
bx L#
bx K#
b0 J#
bx I#
b0 H#
bx G#
bx F#
bx E#
b0 D#
bx C#
bx B#
bx A#
bx @#
0?#
0>#
0=#
0<#
0;#
0:#
bx 9#
bx 8#
07#
06#
05#
04#
bx 3#
02#
01#
00#
x/#
0.#
0-#
x,#
x+#
0*#
x)#
x(#
x'#
x&#
x%#
x$#
x##
x"#
x!#
x~"
x}"
0|"
0{"
xz"
xy"
b0 x"
b0 w"
b11111111111111111111111111111111 v"
0u"
0t"
0s"
0r"
xq"
0p"
0o"
0n"
0m"
0l"
xk"
xj"
xi"
0h"
xg"
0f"
xe"
0d"
0c"
0b"
0a"
0`"
x_"
0^"
x]"
x\"
x["
xZ"
xY"
xX"
xW"
xV"
0U"
0T"
xS"
xR"
xQ"
xP"
xO"
xN"
xM"
xL"
xK"
xJ"
xI"
0H"
0G"
0F"
0E"
0D"
0C"
xB"
0A"
0@"
0?"
0>"
b0 ="
b0 <"
0;"
x:"
09"
x8"
07"
bx 6"
bx 5"
bx 4"
bx 3"
bx 2"
bx 1"
00"
x/"
bx ."
x-"
bx ,"
x+"
bx *"
bx )"
bx ("
bx '"
bx &"
bx %"
b110011001100101011101000110001101101000 $"
bx #"
bx ""
0!"
bx ~
bx }
bx |
b1000000 {
b0 z
b0 y
xx
xw
0v
bx u
bx t
bx s
bx r
bx q
bx p
0o
0n
bx m
bx l
bx k
xj
xi
bx h
xg
xf
xe
bx d
bx c
bx b
bx a
x`
0_
bx00 ^
bx ]
bx \
b0 [
bx Z
0Y
xX
0W
xV
bx U
bx T
bx S
bx R
bx Q
bx P
bx O
bz N
b10000000 M
zL
zK
bx J
bx I
zH
bz G
0F
0E
0D
bx C
0B
0A
0@
bx ?
0>
bx =
0<
0;
0:
09
08
07
06
bz 5
x4
bx 3
bx 2
01
x0
bx /
x.
bx -
b100 ,
b100000000 +
0*
x)
bx (
1'
bx &
x%
0$
bx #
bx "
0!
$end
#5000
0'
#10000
1*
00
0)
08"
0:"
0w
0(#
0'#
0+"
b0 J#
1'
#15000
0'
#20000
1:
b0 ^
b1111 A#
bx w"
b0 F#
1_
1<#
b1 y
bx ""
bx J#
1'
#25000
0'
#30000
0:
b10 y
b1 D#
1.
1%
11
1$
b0 3
b0 "
b0 G#
b0 -
b0 &
b0 9#
bx ""
1'
#35000
0'
#40000
17
b111011110000000000000010010011 ]
b111011110000000000000010010011 \
1>
b111011110000000000000010010011 C#
1-#
b11 y
b111011110000000000000010010011 /
b111011110000000000000010010011 (
b111011110000000000000010010011 =
10
1)
bx ""
1'
#45000
0'
#50000
b11100 n#
b11100 !$
b0 m#
b0 ~#
07
0>
bx00 ^
16
b0 |
b0 D#
01
0$
00
0)
0_
0<#
19"
b100 y
0x
b11100 6"
b0 5"
b1 3"
b1110111100 2"
0+#
0,#
0)#
0z"
1y"
0$#
0~"
0q"
0Z"
0L"
0K"
0B"
0Q"
b111011110000000000000010010011 I#
b111011110000000000000010010011 B#
0-#
bx ""
1'
#55000
0'
#60000
b1 o#
b1 $$
1:
b100 ^
06
b1 ("
b11100 *"
b0 )"
b1110111100 &"
b111011110000000000000010010011 '"
b1100001011001000110010001101001 #"
04
b1100001011001000110010001101001 H#
b11011000110010001011111011100100111001100110001 $"
b100 [
b0 %"
10"
1+"
b1110111100 1"
0%#
1}"
0&#
0j"
0S"
0\"
0J"
0I"
0`
0Y"
0X"
0W"
0V"
b0 f#
0k"
0e"
0g"
0_"
1?"
0i"
0]"
0["
0P"
0N"
0R"
0O"
0M"
b111011110000000000000010010011 K#
b111011110000000000000010010011 y#
0##
0"#
b100000 {
1_
1:#
b1 z
b100 Z#
0/#
b1 3#
1:"
09"
b101 y
0/"
0-"
bx ""
1'
#65000
0'
#70000
0:
b1110111100 h
b1100101011110000110010101100011 $"
b1110111100 @#
b0 m
b0 l
1g
1f
0e
b1110111100 d
b1 D#
11
1$
b100 -
b100 &
b100 9#
b1000 {
1<#
b1110111100 J
b1110111100 \#
1-"
b0 ,"
b0 I
b0 [#
0:"
b110 y
0!#
1##
b1 s
b11100 u
b0 t
b111011110000000000000010010011 r
b1110111100 q
b1100001011001000110010001101001 p
0+"
b1 W#
b11100 Y#
b0 X#
b111011110000000000000010010011 V#
b1110111100 U#
b1100001011001000110010001101001 T#
1'
#75000
0'
#80000
17
b110010000000000000000110010011 ]
b110010000000000000000110010011 \
1>
b110011001100101011101000110001101101000 $"
1!"
b1110111100 ~
b110010000000000000000110010011 C#
1-#
b1000000 {
14#
15#
b1110111100 ]#
b111 y
b1110111100 k
b110010000000000000000110010011 /
b110010000000000000000110010011 (
b110010000000000000000110010011 =
10
1)
1'
#85000
0'
#90000
b0 n#
b0 !$
07
0>
b0 ^
16
bx ~
0!"
b0 }
b0 D#
01
0$
00
0)
0_
0<#
0:#
04#
05#
b100 ^#
19"
b1000 y
bx ]#
b0 6"
b11 3"
b1100100000 2"
b110010000000000000000110010011 I#
b110010000000000000000110010011 B#
0-#
bx ""
1'
#95000
0'
#100000
b11 o#
b11 $$
1:
b1000 ^
06
b11 ("
b0 *"
b1100100000 &"
b110010000000000000000110010011 '"
bx h
b11011000110010001011111011100100111001100110001 $"
b1000 [
b100 %"
1+"
b1100100000 1"
0##
b110010000000000000000110010011 K#
b110010000000000000000110010011 y#
b100000 {
1_
1:#
b10 z
b1000 Z#
b11 3#
1:"
09"
b1001 y
0-"
bx ,"
bx ""
1'
#105000
0'
#110000
0:
b1100101011110000110010101100011 $"
b1100100000 @#
b1100100000 d
b1100100000 h
b1 D#
11
1$
b1000 -
b1000 &
b1000 9#
b1000 {
1<#
1-"
b0 ,"
b1100100000 J
b1100100000 \#
b0 I
b0 [#
0:"
b1010 y
bx k
1##
b11 s
b0 u
b110010000000000000000110010011 r
b1100100000 q
0+"
b11 W#
b0 Y#
b110010000000000000000110010011 V#
b1100100000 U#
1'
#115000
0'
#120000
17
b100000000000000000100010011 ]
b100000000000000000100010011 \
1>
b110011001100101011101000110001101101000 $"
1!"
b1100100000 ~
b100000000000000000100010011 C#
1-#
b1000000 {
14#
15#
b1100100100 ]#
b1011 y
b1100100000 k
b100000000000000000100010011 /
b100000000000000000100010011 (
b100000000000000000100010011 =
10
1)
1'
#125000
0'
#130000
07
0>
b0 ^
16
bx ~
0!"
b0 D#
01
0$
00
0)
0_
0<#
0:#
04#
05#
b1000 ^#
19"
b1100 y
bx ]#
b10 3"
b1000000 2"
b100000000000000000100010011 I#
b100000000000000000100010011 B#
0-#
bx ""
1'
#135000
0'
#140000
b10 o#
b10 $$
1:
b1100 ^
06
b10 ("
b1000000 &"
b100000000000000000100010011 '"
bx h
b11011000110010001011111011100100111001100110001 $"
b1100 [
b1000 %"
1+"
b1000000 1"
0##
b100000000000000000100010011 K#
b100000000000000000100010011 y#
b100000 {
1_
1:#
b11 z
b1100 Z#
b10 3#
1:"
09"
b1101 y
0-"
bx ,"
bx ""
1'
#145000
0'
#150000
0:
b1100101011110000110010101100011 $"
b1000000 @#
b1000000 d
b1000000 h
b1 D#
11
1$
b1100 -
b1100 &
b1100 9#
b1000 {
1<#
1-"
b0 ,"
b1000000 J
b1000000 \#
b0 I
b0 [#
0:"
b1110 y
bx k
1##
b10 s
b100000000000000000100010011 r
b1000000 q
0+"
b10 W#
b100000000000000000100010011 V#
b1000000 U#
1'
#155000
0'
#160000
17
b10111001001010111 ]
b10111001001010111 \
1>
b110011001100101011101000110001101101000 $"
1!"
b1000000 ~
b10111001001010111 C#
1-#
b1000000 {
14#
15#
b1001000 ]#
b1111 y
b1000000 k
b10111001001010111 /
b10111001001010111 (
b10111001001010111 =
10
1)
1'
#165000
0'
#170000
b10 m#
b10 ~#
07
0>
b0 ^
16
bx ~
0!"
b1000000 |
b0 D#
01
0$
00
0)
0_
0<#
0:#
04#
05#
b1100 ^#
19"
b10000 y
bx ]#
b10 5"
b100 3"
b10111000000000000 2"
1+#
0y"
b10111001001010111 I#
b10111001001010111 B#
0-#
bx ""
1'
#175000
0'
#180000
b100 o#
b100 $$
1:
b10000 ^
06
b100 ("
b10 )"
b0 &"
b10111001001010111 '"
b1110110011100110110010101110100011101100110110001101001 #"
bx h
b1110110011100110110010101110100011101100110110001101001 H#
b11011000110010001011111011100100111001100110001 $"
b10000 [
b1100 %"
1+"
b0 1"
0##
0}"
1o"
0?"
b10111001001010111 K#
b10111001001010111 y#
b100000 {
1_
1:#
b100 z
b10000 Z#
b100 3#
1:"
09"
b10001 y
0-"
bx ,"
bx ""
1'
#185000
0'
#190000
0:
b1100101011110000110010101100011 $"
b100000000000 a
b1000 b
b1000 w#
b0 Q
b100000 c
b0 S
b1000000 h
bx @#
bx m
bx l
xg
xf
xe
bx d
b1 D#
11
1$
b10000 -
b10000 &
b10000 9#
b1000 {
1<#
b0 j#
b1000000 i#
bx J
bx \#
bx I
bx [#
0:"
b10010 y
bx k
b100 s
b10 t
b10111001001010111 r
b0 q
b1110110011100110110010101110100011101100110110001101001 p
0+"
b100 W#
b10 X#
b10111001001010111 V#
b0 U#
b1110110011100110110010101110100011101100110110001101001 T#
1'
#195000
0'
#200000
17
b10000000001111000000000111 ]
b10000000001111000000000111 \
1>
b110011001100101011101000110001101101000 $"
1!"
b1000000 ~
b10000000001111000000000111 C#
1-#
b1000000 {
14#
15#
b1100 ]#
b10011 y
b1000000 k
b10000000001111000000000111 /
b10000000001111000000000111 (
b10000000001111000000000111 =
10
1)
1'
#205000
0'
#210000
b1 m#
b1 ~#
07
0>
bx00 ^
16
bx ~
0!"
b1110111100 |
b0 D#
01
0$
00
0)
0_
0<#
0:#
04#
05#
b10000 ^#
19"
b10100 y
bx ]#
b1 5"
b0 3"
b1111000000100000 2"
0+#
1)#
b10000000001111000000000111 I#
b10000000001111000000000111 B#
0-#
bx ""
1'
#215000
0'
#220000
b0 o#
b0 $$
1:
b10100 ^
06
b0 ("
b1 )"
b0x &"
b10000000001111000000000111 '"
b111011001101100011011110110000101100100 #"
bx h
b111011001101100011011110110000101100100 H#
b11011000110010001011111011100100111001100110001 $"
b10100 [
b10000 %"
1+"
b0x 1"
b111 f#
0o"
1m"
b10000000001111000000000111 K#
b10000000001111000000000111 y#
b100000 {
1_
1:#
b101 z
b10100 Z#
b0 3#
1:"
09"
b10101 y
bx ""
1'
#225000
0'
#230000
0:
b110110001100100011011010110010101101101 $"
b1 D#
11
1$
b10100 -
b10100 &
b10100 9#
b1000000000 g#
1*#
b0 l#
b10000 k#
1<#
b1 {
b1110111000 I
b1110111000 [#
0:"
b10110 y
bx k
b0 s
b1 t
b10000000001111000000000111 r
b0x q
b111011001101100011011110110000101100100 p
0+"
b0 W#
b1 X#
b10000000001111000000000111 V#
b0x U#
b111011001101100011011110110000101100100 T#
b0 R
b10000 v#
1'
#235000
0'
#240000
17
b10000000011111000010000111 ]
b10000000011111000010000111 \
1>
b10000000011111000010000111 C#
1-#
17#
b10111 y
b10000000011111000010000111 /
b10000000011111000010000111 (
b10000000011111000010000111 =
10
1)
1'
#245000
0'
#250000
b11 m#
b11 ~#
07
1:
0>
b1110111100 ^
b1100100000 |
b0 D#
01
0$
00
0)
1;#
1_
0<#
0:#
b1111 k#
b1110111100 I
b1110111100 [#
b111100000 g#
19"
b11000 y
b11 5"
b1 3"
b11111000000100000 2"
b10000000011111000010000111 I#
b10000000011111000010000111 B#
0-#
1`#
1'
#255000
0'
#260000
0:
b10000000011111000010000111 K#
b10000000011111000010000111 y#
1:"
09"
b11001 y
b1 D#
0.
0%
11
1$
b1110111100 -
b1110111100 &
b1110111100 9#
0`#
1'
#265000
0'
#270000
17
b1000000100000001100000100 ]
b1000000100000001100000100 \
1>
b1000000100000001100000100 C#
b1000000100000001100000100 /
b1000000100000001100000100 (
b1000000100000001100000100 =
10
1)
0:"
b11010 y
b1 s
b11 t
b10000000011111000010000111 r
1-#
1'
#275000
0'
#280000
07
0>
b0 D#
01
0$
0-#
b1000000100000001100000100 I#
b1000000100000001100000100 B#
0_
0;#
b1 l#
b1000000100000001100000100000000000000000000000000000000000000000000000000000000000000000000000000000000000000000000000000000000000000000000000000000000000000000000000000000000000000000000000000000000000000000000000000000000000000000000000000000000000000000000000000000000000000000000000000000000000000000000000000000000000000000000000000000000000000000000000000000000000000000000000000000000000000000000000000000000000000000000000000000000000000000000000000000000000000000000000000000000000000000000000000 R
b11011 y
00
0)
1'
#285000
0'
#290000
1:
b1111000000 ^
1_
1;#
b1110 k#
b1111000000 I
b1111000000 [#
b111000000 g#
b11100 y
1`#
1'
#295000
0'
#300000
0:
b1 D#
11
1$
b1111000000 -
b1111000000 &
b1111000000 9#
b11101 y
0`#
1'
#305000
0'
#310000
17
b101000001100000011100001000 ]
b101000001100000011100001000 \
1>
b101000001100000011100001000 C#
b101000001100000011100001000 /
b101000001100000011100001000 (
b101000001100000011100001000 =
10
1)
b11110 y
1-#
1'
#315000
0'
#320000
07
0>
b0 D#
01
0$
0-#
b101000001100000011100001000 I#
b101000001100000011100001000 B#
0_
0;#
b10 l#
b1000000100000001100000100000001010000011000000111000010000000000000000000000000000000000000000000000000000000000000000000000000000000000000000000000000000000000000000000000000000000000000000000000000000000000000000000000000000000000000000000000000000000000000000000000000000000000000000000000000000000000000000000000000000000000000000000000000000000000000000000000000000000000000000000000000000000000000000000000000000000000000000000000000000000000000000000000000000000000000000000000000000000000000000000 R
b11111 y
00
0)
1'
#325000
0'
#330000
1:
b1111000100 ^
1_
1;#
b1101 k#
b1111000100 I
b1111000100 [#
b110100000 g#
b100000 y
1`#
1'
#335000
0'
#340000
0:
b1 D#
11
1$
b1111000100 -
b1111000100 &
b1111000100 9#
b100001 y
0`#
1'
#345000
0'
#350000
17
b1001000010100000101100001100 ]
b1001000010100000101100001100 \
1>
b1001000010100000101100001100 C#
b1001000010100000101100001100 /
b1001000010100000101100001100 (
b1001000010100000101100001100 =
10
1)
b100010 y
1-#
1'
#355000
0'
#360000
07
0>
b0 D#
01
0$
0-#
b1001000010100000101100001100 I#
b1001000010100000101100001100 B#
0_
0;#
b11 l#
b1000000100000001100000100000001010000011000000111000010000000100100001010000010110000110000000000000000000000000000000000000000000000000000000000000000000000000000000000000000000000000000000000000000000000000000000000000000000000000000000000000000000000000000000000000000000000000000000000000000000000000000000000000000000000000000000000000000000000000000000000000000000000000000000000000000000000000000000000000000000000000000000000000000000000000000000000000000000000000000000000000000000000000000000000 R
b100011 y
00
0)
1'
#365000
0'
#370000
1:
b1111001000 ^
1_
1;#
b1100 k#
b1111001000 I
b1111001000 [#
b110000000 g#
b100100 y
1`#
1'
#375000
0'
#380000
0:
b1 D#
11
1$
b1111001000 -
b1111001000 &
b1111001000 9#
b100101 y
0`#
1'
#385000
0'
#390000
17
b1101000011100000111100010000 ]
b1101000011100000111100010000 \
1>
b1101000011100000111100010000 C#
b1101000011100000111100010000 /
b1101000011100000111100010000 (
b1101000011100000111100010000 =
10
1)
b100110 y
1-#
1'
#395000
0'
